com\crom\seo\testcases\AjouterSiteTest.class
com\crom\seo\testcases\GenereSujetTest.class
com\crom\seo\testcases\InscriptionTest.class
com\crom\seo\testcases\LoginTest.class
com\crom\seo\testcases\GenereratMotCleTest.class
com\crom\seo\testcases\RedigerBlogTest.class
com\crom\seo\testcases\ProfilTest.class
com\crom\seo\testcases\RedacteurIATest.class
